<?xml version="1.0" standalone="no"?>
<!DOCTYPE svg PUBLIC "-//W3C//DTD SVG 1.1//EN" "http://www.w3.org/Graphics/SVG/1.1/DTD/svg11.dtd" >
<!--
2020-3-4: Created with FontForge (http://fontforge.org)
-->
<svg xmlns="http://www.w3.org/2000/svg" xmlns:xlink="http://www.w3.org/1999/xlink" version="1.1">
<metadata>
Created by FontForge 20170731 at Wed Mar  4 09:30:32 2020
 By root

</metadata>
<defs>
<font id="Flaticon" horiz-adv-x="512" >
  <font-face 
    font-family="Flaticon"
    font-weight="400"
    font-stretch="normal"
    units-per-em="512"
    panose-1="2 0 5 3 0 0 0 0 0 0"
    ascent="448"
    descent="-64"
    bbox="-0.00102466 -65.4998 513.002 447.745"
    underline-thickness="25.6"
    underline-position="-51.2"
    unicode-range="U+0020-F102"
  />
    <missing-glyph />
    <glyph glyph-name="space" unicode=" " horiz-adv-x="200" 
 />
    <glyph glyph-name="003-ship" unicode="&#xf102;" 
d="M504.078 284.453c2.86816 -0.0332031 5.52637 -1.50684 7.07812 -3.92188c1.55176 -2.41211 1.78613 -5.44531 0.621094 -8.06641l-48.958 -110.16c6.53418 -2.0166 13.3496 -2.9668 20.1885 -2.82324c4.6543 0 8.42871 -3.76953 8.42871 -8.42773
c0 -4.6543 -3.77441 -8.42773 -8.42871 -8.42773c-21.4814 0 -32.7568 6.14355 -42.7031 11.5635c-9.3623 5.10254 -17.4482 9.50586 -34.6338 9.50586c-17.1895 0 -25.2754 -4.40332 -34.6377 -9.50586c-9.94727 -5.41992 -21.2188 -11.5635 -42.7002 -11.5635
s-32.7568 6.14355 -42.7031 11.5635c-9.3623 5.10254 -17.4492 9.50586 -34.6377 9.50586c-17.1855 0 -25.2764 -4.40332 -34.6387 -9.50586c-9.94629 -5.41992 -21.2178 -11.5635 -42.7031 -11.5635c-21.4814 0 -32.7578 6.14355 -42.7041 11.5635
c-9.36621 5.10254 -17.4521 9.50586 -34.6416 9.50586s-25.2764 -4.40332 -34.6377 -9.50586c-9.94238 -5.41992 -21.2227 -11.5596 -42.708 -11.5596c-4.6543 0 -8.43262 3.77344 -8.43262 8.43164c0 4.6543 3.77832 8.42773 8.43262 8.42773
c7.06543 -0.15625 14.1064 0.876953 20.8311 3.0498l-39.3047 110.56c-0.913086 2.59277 -0.522461 5.46484 1.05371 7.71582c1.57227 2.25098 4.13574 3.60547 6.88477 3.63867h18.165v63.8633c-0.0292969 4.7373 3.69922 8.63867 8.42773 8.82715h1.05371v21.0703
c0 4.6543 3.77344 8.42773 8.42773 8.42773h30.5518c4.6543 0 8.42773 -3.77344 8.42773 -8.42773v-21.0703h2.10645c4.72852 -0.188477 8.46094 -4.08984 8.42871 -8.82715v-63.8633h4.21387v17.5098c0.131836 4.80273 3.97949 8.6709 8.77734 8.82715h50.2188v59.6504
c0.130859 4.80273 3.97852 8.6709 8.77734 8.82715h48.1113v59.6504c0.131836 4.80176 3.97949 8.6709 8.77734 8.82715h111.671c4.6582 0 8.07812 -4.16895 8.07812 -8.82715v-59.6504h46.7041c4.6582 0 8.07812 -4.16895 8.07812 -8.82715v-59.6504h44.5967
c4.6582 0 8.07812 -4.16895 8.07812 -8.82715v-17.5098h53.9834zM433.238 284.453v9.48145h-94.8145v-51.6221h27.9219l36.4736 39.4365c1.59668 1.72461 3.83887 2.7041 6.18848 2.7041h24.2305zM321.568 293.935h-94.8154v-51.6221h94.8154v51.6221zM380.563 310.79
v51.6211h-94.8145v-51.6211h94.8145zM230.967 430.889v-51.6211h94.8154v51.6211h-94.8154zM174.078 362.411v-51.6211h94.8145v51.6211h-94.8145zM115.082 293.935v-9.48145h24.2305c2.47363 0 4.82324 -1.08691 6.42871 -2.97168l33.2871 -39.1689h30.8691v51.6221
h-94.8154zM52.9258 369.786v-12.6426h13.6953v12.6426h-13.6953zM43.4443 340.288v-55.835h33.7119v55.835h-33.7119zM447.543 169.511l43.5684 98.0859h-78.416l-36.4775 -39.4365c-1.59668 -1.72363 -3.83887 -2.70312 -6.18945 -2.70312h-194.896
c-2.47363 0 -4.82324 1.08203 -6.42383 2.9707l-33.292 39.1689h-115.05l34.7246 -97.7246c9.60059 5.20215 20.7939 10.6797 41.2139 10.6797c21.4854 0 32.7607 -6.14062 42.708 -11.5596c9.36133 -5.10352 17.4482 -9.51074 34.6377 -9.51074
s25.2754 4.40723 34.6377 9.51074c9.9502 5.41895 21.2227 11.5635 42.7041 11.5635c21.4854 0 32.7568 -6.13965 42.7031 -11.5596c9.3623 -5.10352 17.4531 -9.50684 34.6377 -9.50684c17.1855 0 25.2715 4.41602 34.6338 9.51855
c9.94727 5.41992 21.2227 11.5811 42.7041 11.5811c20.8848 0 32.123 -5.77441 41.8721 -11.0781zM447.543 169.511zM18.959 100.485c-4.6543 0 -8.42773 3.77344 -8.42773 8.42871c0 4.6543 3.77344 8.42773 8.42773 8.42773c17.1895 0 25.2754 4.40723 34.6416 9.50586
c9.94629 5.42383 21.2227 11.5635 42.708 11.5635c21.4814 0 32.7568 -6.14355 42.7041 -11.5635c9.36621 -5.09863 17.4521 -9.50586 34.6416 -9.50586s25.2715 4.40723 34.6377 9.50586c9.94629 5.41992 21.2227 11.5635 42.7041 11.5635
s32.7568 -6.14355 42.6992 -11.5635c9.36621 -5.09863 17.4531 -9.50586 34.6377 -9.50586c17.1895 0 25.2764 4.40723 34.6387 9.50586c9.94238 5.42383 21.2178 11.5635 42.6992 11.5635s32.7529 -6.13965 42.6992 -11.5596
c9.3623 -5.10254 17.4492 -9.50977 34.6377 -9.50977c4.6543 0 8.42871 -3.76953 8.42871 -8.42773c0 -4.65527 -3.77441 -8.42871 -8.42871 -8.42871c-21.4814 0 -32.7568 6.14453 -42.7031 11.5645c-9.3623 5.10254 -17.4482 9.50586 -34.6338 9.50586
c-17.1895 0 -25.2754 -4.40332 -34.6377 -9.50586c-9.94727 -5.41992 -21.2188 -11.5645 -42.7002 -11.5645s-32.7568 6.14453 -42.7031 11.5645c-9.3623 5.10254 -17.4492 9.50586 -34.6377 9.50586c-17.1855 0 -25.2764 -4.40332 -34.6387 -9.50586
c-9.94629 -5.41992 -21.2178 -11.5645 -42.7031 -11.5645c-21.4814 0 -32.7578 6.14453 -42.7041 11.5645c-9.36621 5.10254 -17.4521 9.50586 -34.6416 9.50586s-25.2764 -4.40332 -34.6377 -9.50586c-9.94238 -5.41992 -21.2227 -11.5645 -42.708 -11.5645z
M18.959 100.485zM18.959 58.3457c-4.6543 0 -8.42773 3.77344 -8.42773 8.42773s3.77344 8.42773 8.42773 8.42773c17.1895 0 25.2754 4.4082 34.6416 9.50684c9.94629 5.42383 21.2227 11.5635 42.708 11.5635c21.4814 0 32.7568 -6.14355 42.7041 -11.5635
c9.36621 -5.09863 17.4521 -9.50684 34.6416 -9.50684s25.2715 4.4082 34.6377 9.50684c9.94629 5.41992 21.2227 11.5635 42.7041 11.5635s32.7568 -6.14355 42.6992 -11.5635c9.36621 -5.09863 17.4531 -9.50684 34.6377 -9.50684
c17.1895 0 25.2764 4.4082 34.6387 9.50684c9.94238 5.42383 21.2178 11.5635 42.6992 11.5635s32.7529 -6.13965 42.6992 -11.5596c9.3623 -5.10254 17.4492 -9.51074 34.6377 -9.51074c4.6543 0 8.42871 -3.76953 8.42871 -8.42773
c0 -4.6543 -3.77441 -8.42773 -8.42871 -8.42773c-21.4814 0 -32.7568 6.14355 -42.7031 11.5635c-9.3623 5.10352 -17.4482 9.50684 -34.6338 9.50684c-17.1895 0 -25.2754 -4.40332 -34.6377 -9.50684c-9.94727 -5.41992 -21.2188 -11.5635 -42.7002 -11.5635
s-32.7568 6.14355 -42.7031 11.5635c-9.3623 5.10352 -17.4492 9.50684 -34.6377 9.50684c-17.1855 0 -25.2764 -4.40332 -34.6387 -9.50684c-9.94629 -5.41992 -21.2178 -11.5635 -42.7031 -11.5635c-21.4814 0 -32.7578 6.14355 -42.7041 11.5635
c-9.36621 5.10352 -17.4521 9.50684 -34.6416 9.50684s-25.2764 -4.40332 -34.6377 -9.50684c-9.94238 -5.41992 -21.2227 -11.5635 -42.708 -11.5635zM18.959 58.3457z" />
    <glyph glyph-name="002-delivery-truck" unicode="&#xf101;" 
d="M414.5 259.475c53.7617 0 97.5 -43.7393 97.5 -97.501c0 -4.52734 -0.484375 -11.9238 -1.23926 -20.707c-0.00292969 -0.0283203 -0.00390625 -0.0585938 -0.00683594 -0.0878906c-2.62305 -30.4678 -8.49609 -77.5869 -8.81348 -80.1348
c-0.0136719 -0.103516 -0.0351562 -0.202148 -0.0527344 -0.303711c-0.0185547 -0.115234 -0.0351562 -0.230469 -0.0595703 -0.34375c-0.0283203 -0.126953 -0.0634766 -0.250977 -0.0957031 -0.375977c-0.0292969 -0.105469 -0.0537109 -0.211914 -0.0869141 -0.316406
c-0.0507812 -0.160156 -0.110352 -0.31543 -0.171875 -0.470703c-0.0244141 -0.0625 -0.0449219 -0.12793 -0.0703125 -0.19043c-0.09375 -0.220703 -0.197266 -0.433594 -0.310547 -0.641602c-0.00488281 -0.0126953 -0.0126953 -0.0234375 -0.0205078 -0.0361328
c-0.106445 -0.193359 -0.22168 -0.381836 -0.34375 -0.564453c-0.0322266 -0.0507812 -0.0703125 -0.0966797 -0.104492 -0.145508c-0.0996094 -0.140625 -0.200195 -0.28125 -0.310547 -0.416992c-0.0507812 -0.0615234 -0.105469 -0.121094 -0.158203 -0.181641
c-0.0996094 -0.113281 -0.198242 -0.225586 -0.302734 -0.331055c-0.0654297 -0.0683594 -0.136719 -0.131836 -0.204102 -0.197266c-0.0986328 -0.0927734 -0.195312 -0.183594 -0.298828 -0.270508c-0.0800781 -0.0683594 -0.163086 -0.132812 -0.245117 -0.197266
c-0.0986328 -0.0761719 -0.195312 -0.151367 -0.297852 -0.22168c-0.0898438 -0.0644531 -0.183594 -0.125 -0.277344 -0.185547c-0.101562 -0.0634766 -0.203125 -0.125977 -0.306641 -0.185547c-0.0976562 -0.0566406 -0.195312 -0.110352 -0.297852 -0.162109
c-0.106445 -0.0556641 -0.216797 -0.107422 -0.327148 -0.158203c-0.100586 -0.0449219 -0.200195 -0.0898438 -0.303711 -0.130859c-0.121094 -0.0488281 -0.244141 -0.0927734 -0.367188 -0.134766c-0.0957031 -0.0332031 -0.19043 -0.0673828 -0.289062 -0.0966797
c-0.143555 -0.0429688 -0.291992 -0.0791016 -0.438477 -0.112305c-0.0810547 -0.0195312 -0.160156 -0.0410156 -0.242188 -0.0576172c-0.19043 -0.0380859 -0.383789 -0.0644531 -0.579102 -0.0878906c-0.0439453 -0.00488281 -0.0859375 -0.0136719 -0.129883 -0.0175781
c-0.244141 -0.0244141 -0.490234 -0.0390625 -0.740234 -0.0390625c-0.00488281 0 -0.0107422 0.000976562 -0.015625 0.000976562h-33.3965c-3.6875 -27.9531 -27.6553 -49.6035 -56.5977 -49.6035c-28.9443 0 -52.9082 21.6504 -56.5967 49.6035h-120.3
c-3.68652 -27.9531 -27.6514 -49.6035 -56.5947 -49.6035c-28.9453 0 -52.9102 21.6504 -56.5977 49.6035h-33.3877c-0.00390625 0 -0.0078125 -0.000976562 -0.0107422 -0.000976562c-0.242188 0 -0.486328 0.0117188 -0.732422 0.0361328
c-0.00488281 0.000976562 -0.00878906 0.00195312 -0.0136719 0.00195312c-0.223633 0.0214844 -0.442383 0.0566406 -0.660156 0.0976562c-0.0292969 0.00585938 -0.0605469 0.0078125 -0.0898438 0.0136719c-0.229492 0.046875 -0.453125 0.105469 -0.675781 0.170898
c-0.0175781 0.00683594 -0.0341797 0.00976562 -0.0527344 0.0146484c-0.195312 0.0605469 -0.383789 0.132812 -0.572266 0.208008c-0.0419922 0.015625 -0.0859375 0.0273438 -0.126953 0.0458984c-0.135742 0.0566406 -0.266602 0.125977 -0.399414 0.192383
c-0.639648 0.314453 -1.22363 0.716797 -1.74023 1.19043c-0.0839844 0.0761719 -0.170898 0.148438 -0.250977 0.228516c-0.0146484 0.0136719 -0.0273438 0.0302734 -0.0419922 0.0458984c-0.803711 0.817383 -1.41992 1.81934 -1.7832 2.93555
c-0.0078125 0.0283203 -0.0195312 0.0537109 -0.0283203 0.0810547c-0.0302734 0.0966797 -0.0517578 0.198242 -0.0771484 0.296875c-0.0380859 0.141602 -0.0791016 0.280273 -0.108398 0.423828c-0.0107422 0.0556641 -0.015625 0.112305 -0.0263672 0.167969
c-0.0341797 0.19043 -0.0673828 0.381836 -0.0878906 0.575195c-0.00683594 0.0605469 -0.00488281 0.12207 -0.0107422 0.183594c-0.0136719 0.189453 -0.0283203 0.379883 -0.0283203 0.572266c0 0.0078125 -0.000976562 0.0136719 -0.000976562 0.0195312
c0 0.139648 0.0146484 0.274414 0.0214844 0.413086c0.00585938 0.103516 0.00488281 0.206055 0.0146484 0.30957l0.00292969 0.0292969c0.000976562 0.0078125 0.00195312 0.0175781 0.00292969 0.0273438l7.74902 79.9785
c0.000976562 0.0078125 0.000976562 0.015625 0.00195312 0.0234375l5.0127 51.7207h-25.3066c-4.14258 0 -7.5 3.3584 -7.5 7.5c0 4.14258 3.35742 7.5 7.5 7.5h26.7598l9.2041 94.9961h-89.4658c-4.14258 0 -7.5 3.35742 -7.5 7.5c0 4.1416 3.35742 7.5 7.5 7.5h90.9189
l5.12402 52.8848c0.000976562 0.0126953 0.00488281 0.0234375 0.00585938 0.0351562c0.00585938 0.0615234 0.0185547 0.119141 0.0253906 0.179688c0.0253906 0.192383 0.0498047 0.383789 0.0878906 0.570312
c0.00488281 0.0253906 0.0146484 0.0488281 0.0195312 0.0742188c0.738281 3.4375 3.79492 5.91797 7.31738 5.91699c0.00488281 0 0.0078125 0.000976562 0.0117188 0.000976562h90c4.12988 0 7.5 -3.36035 7.5 -7.5c0 -4.12988 -3.37012 -7.5 -7.5 -7.5h-83.1934
l-4.32812 -44.6621h77.5215c4.14258 0 7.5 -3.3584 7.5 -7.5c0 -4.14258 -3.35742 -7.5 -7.5 -7.5h-78.9756l-9.2041 -94.9961h48.168c4.14258 0 7.5 -3.35742 7.5 -7.5c0 -4.1416 -3.35742 -7.5 -7.5 -7.5h-49.6221l-4.3584 -44.998h260.609l3.7666 43.2412
c0.00195312 0.0136719 0.00195312 0.0263672 0.00390625 0.0390625l14.9258 171.376h-145.313c-4.13965 0 -7.5 3.37012 -7.5 7.5c0 4.13965 3.36035 7.5 7.5 7.5h153.372h0.0224609h0.09375c0.0888672 0 0.174805 -0.00976562 0.262695 -0.0126953
c0.130859 -0.00585938 0.260742 -0.00292969 0.392578 -0.015625c0.0214844 -0.00195312 0.0400391 -0.00585938 0.0615234 -0.0078125c0.123047 -0.0107422 0.243164 -0.0322266 0.364258 -0.0498047c0.130859 -0.0195312 0.262695 -0.0351562 0.389648 -0.0605469
c0.102539 -0.0195312 0.201172 -0.0488281 0.302734 -0.0722656c0.145508 -0.0351562 0.291016 -0.0693359 0.432617 -0.112305c0.0654297 -0.0205078 0.126953 -0.0458984 0.192383 -0.0673828c0.173828 -0.0576172 0.34668 -0.117188 0.513672 -0.1875
c0.0234375 -0.00976562 0.0449219 -0.0224609 0.0683594 -0.0322266c2.69141 -1.16309 4.52246 -3.83789 4.52246 -6.87305v-0.0078125c0 -0.0166016 -0.00195312 -0.0332031 -0.00195312 -0.0498047c-0.00195312 -0.199219 -0.00488281 -0.398438 -0.0224609 -0.600586
l-9.71191 -111.509h32.2344zM380.958 244.473l-3.91895 -44.9971h30.6836l3.91895 44.9971h-30.6836zM171.009 19.8691c23.2158 0 42.1045 18.8887 42.1045 42.1045s-18.8887 42.1045 -42.1045 42.1045s-42.1055 -18.8887 -42.1055 -42.1045
s18.8887 -42.1045 42.1055 -42.1045zM404.498 19.8691c23.2168 0 42.1045 18.8887 42.1045 42.1045s-18.8877 42.1045 -42.1045 42.1045c-23.2158 0 -42.1035 -18.8887 -42.1035 -42.1045s18.8867 -42.1045 42.1035 -42.1045zM487.865 69.4766
c1.57812 12.9678 5.10449 42.584 7.28711 65.6543c-17.1807 2.83105 -27.2871 14.4355 -36.3408 24.8369c-10.9707 12.6064 -21.335 24.5117 -44.3135 24.5117h-38.7627l-3.75879 -43.1494c-0.000976562 -0.0185547 -0.00488281 -0.0351562 -0.00683594 -0.0537109
c-0.0126953 -0.125977 -0.0332031 -0.248047 -0.0517578 -0.371094c-0.0175781 -0.120117 -0.03125 -0.240234 -0.0546875 -0.358398c-0.0224609 -0.121094 -0.0546875 -0.239258 -0.0839844 -0.358398c-0.0302734 -0.118164 -0.0566406 -0.236328 -0.0898438 -0.352539
c-0.0332031 -0.110352 -0.0722656 -0.216797 -0.109375 -0.324219c-0.0429688 -0.121094 -0.0839844 -0.242188 -0.132812 -0.360352c-0.0400391 -0.0996094 -0.0849609 -0.194336 -0.128906 -0.291992c-0.0566406 -0.120117 -0.111328 -0.240234 -0.173828 -0.358398
c-0.0458984 -0.0898438 -0.0976562 -0.177734 -0.149414 -0.266602c-0.0664062 -0.117188 -0.136719 -0.233398 -0.209961 -0.34668c-0.0556641 -0.0839844 -0.112305 -0.166016 -0.171875 -0.248047c-0.078125 -0.108398 -0.157227 -0.216797 -0.240234 -0.322266
c-0.0634766 -0.0800781 -0.129883 -0.157227 -0.196289 -0.235352c-0.0859375 -0.0996094 -0.172852 -0.196289 -0.263672 -0.290039c-0.0732422 -0.0771484 -0.149414 -0.152344 -0.225586 -0.225586c-0.0898438 -0.0869141 -0.182617 -0.170898 -0.27832 -0.25293
c-0.0839844 -0.0722656 -0.168945 -0.143555 -0.254883 -0.212891c-0.0957031 -0.0751953 -0.191406 -0.146484 -0.291016 -0.216797c-0.0927734 -0.0664062 -0.18457 -0.131836 -0.282227 -0.195312c-0.0996094 -0.0634766 -0.201172 -0.125 -0.304688 -0.18457
c-0.100586 -0.0585938 -0.201172 -0.116211 -0.302734 -0.169922c-0.107422 -0.0566406 -0.217773 -0.107422 -0.329102 -0.158203c-0.102539 -0.0478516 -0.203125 -0.0957031 -0.307617 -0.138672c-0.12207 -0.0507812 -0.248047 -0.09375 -0.374023 -0.137695
c-0.0976562 -0.0332031 -0.192383 -0.0693359 -0.291992 -0.0996094c-0.146484 -0.0439453 -0.296875 -0.0791016 -0.446289 -0.115234c-0.0820312 -0.0195312 -0.163086 -0.0429688 -0.246094 -0.0595703c-0.192383 -0.0380859 -0.386719 -0.0664062 -0.583008 -0.0888672
c-0.0458984 -0.00683594 -0.0908203 -0.0166016 -0.136719 -0.0205078c-0.246094 -0.0244141 -0.495117 -0.0390625 -0.746094 -0.0390625h-0.0117188v0.00390625h-268.936l-6.29883 -65.0039h25.1436c3.68652 27.9541 27.6533 49.6064 56.5986 49.6064
s52.9102 -21.6514 56.5957 -49.6064h120.299c3.68652 27.9541 27.6523 49.6064 56.5967 49.6064c28.9453 0 52.9121 -21.6514 56.5977 -49.6064h26.7676zM496.434 150.161c0.356445 4.91602 0.566406 9 0.566406 11.8105c0 41.373 -30.6162 75.7217 -70.3799 81.6025
l-3.88086 -44.5479c24.3135 -2.71387 36.9961 -17.2793 47.3857 -29.2148c8.30664 -9.54395 15.1641 -17.3789 26.3086 -19.6504zM171.009 89.4746c15.1631 0 27.5 -12.3369 27.5 -27.5c0 -15.1641 -12.3369 -27.5 -27.5 -27.5s-27.5 12.3359 -27.5 27.5
s12.3369 27.5 27.5 27.5zM171.009 49.4746c6.8916 0 12.5 5.60645 12.5 12.5c0 6.89258 -5.60742 12.5 -12.5 12.5c-6.89355 0 -12.5 -5.60742 -12.5 -12.5c0 -6.89355 5.60645 -12.5 12.5 -12.5zM404.498 89.4746c15.1621 0 27.5 -12.3369 27.5 -27.5
c0 -15.1641 -12.3379 -27.5 -27.5 -27.5c-15.1631 0 -27.501 12.3359 -27.501 27.5s12.3379 27.5 27.501 27.5zM404.498 49.4746c6.89258 0 12.5 5.60645 12.5 12.5c0 6.89258 -5.60742 12.5 -12.5 12.5c-6.89355 0 -12.501 -5.60742 -12.501 -12.5
c0 -6.89355 5.60742 -12.5 12.501 -12.5zM71 259.473c4.14355 0 7.5 -3.3584 7.5 -7.5c0 -4.14258 -3.35645 -7.5 -7.5 -7.5h-36.666c-4.14258 0 -7.5 3.35742 -7.5 7.5c0 4.1416 3.35742 7.5 7.5 7.5h36.666z" />
    <glyph glyph-name="001-air-freight" unicode="&#xf100;" 
d="M241.69 190.356c3.91797 3.91797 10.2588 3.91797 14.1689 0c3.91797 -3.90625 3.91797 -10.251 0 -14.1689c-3.91016 -3.91699 -10.251 -3.91699 -14.1689 0c-3.91699 3.91797 -3.91699 10.2627 0 14.1689zM241.69 190.356zM401.01 418.188
c40.0664 30.9199 80.5205 38.1455 100.677 18c20.1533 -20.1602 12.9199 -60.6104 -17.9844 -100.661c-0.015625 -0.0234375 -0.0351562 -0.046875 -0.0507812 -0.0664062c-13.3184 -17.1934 -20.0703 -21.7695 -80.4814 -82.8105l5.94922 -36.5557l16.7793 16.7754
c11.749 11.749 30.7588 11.749 42.5049 0c11.749 -11.7461 11.749 -30.7676 0 -42.5166l-47.3779 -47.3779l26.9785 -165.694c1.7334 -10.7129 -1.80859 -21.6758 -9.46777 -29.335c-14.7197 -14.7207 -39.0996 -12.7637 -51.2832 4.07422l-119.582 165.131
l-30.9189 -30.9199c-10.5918 -10.5869 -25.1553 -21.7373 -43.3623 -33.2051l22.6416 -77.0059c3.34277 -11.3662 0.214844 -23.6396 -8.16016 -32.0273c-14.2783 -14.2783 -38.0156 -12.1719 -49.5342 4.45801l-43.707 63.1348
c-24.2539 -10.9902 -41.792 -17.6748 -42.6025 -17.9805c-3.66699 -1.39355 -7.83984 -0.520508 -10.6416 2.28223c-2.78711 2.78613 -3.68359 6.95508 -2.28223 10.6416c0.30957 0.810547 6.99023 18.3486 17.9805 42.6025l-63.1309 43.7031
c-16.6025 11.499 -18.7637 35.2363 -4.46973 49.5303c8.39551 8.37891 20.6689 11.5068 32.0352 8.16797l77.0098 -22.6455c11.46 18.1953 22.6104 32.7666 33.2051 43.3613l30.916 30.9199l-165.131 119.586c-16.8105 12.1641 -18.8105 36.5439 -4.07422 51.2793
c7.66309 7.66309 18.6182 11.2051 29.3271 9.46777l165.706 -26.9785l47.3818 47.3818c11.7451 11.749 30.7666 11.7451 42.5127 0c11.7529 -11.75 11.749 -30.7598 0 -42.5088l-16.7754 -16.7754l36.5557 -5.95312c60.9785 60.3486 65.6641 67.21 82.8574 80.5205z
M270.027 388.731l-37.1777 -37.1738l24.3711 -3.96875l26.9824 26.9785c3.91406 3.91797 3.91797 10.2471 0 14.1641c-3.91699 3.91797 -10.2617 3.91797 -14.1758 0zM29.2686 337.988l167.733 -121.468l103.69 103.687l-261.135 42.5166
c-4.35254 0.708984 -8.82227 -0.735352 -11.9414 -3.8584c-5.99219 -5.98828 -5.20508 -15.918 1.65234 -20.877zM23.6514 128.188c-5.44824 -5.44434 -4.61816 -14.4971 1.71094 -18.8799l60.3203 -41.7578c7.41309 15.4248 14.8457 29.6748 22.2119 42.5752
l-72.0273 21.1826c-4.33301 1.27539 -9.01367 0.078125 -12.2158 -3.12012zM193.694 -41.8477c3.19434 3.19824 4.3877 7.87891 3.1123 12.2158l-21.1787 72.0234c-12.8848 -7.35059 -27.1387 -14.7871 -42.5752 -22.208l41.7578 -60.3242
c4.41797 -6.37988 13.4834 -7.10742 18.8838 -1.70703zM440.07 218.7l-26.9785 -26.9785l3.96484 -24.3711l37.1777 37.1738c3.91406 3.91797 3.91797 10.2588 0 14.1758c-3.91699 3.91797 -10.25 3.91406 -14.1641 0zM428.223 -25.9336l-42.5127 261.123l-103.69 -103.69
l121.468 -167.729c4.98242 -6.88867 14.9199 -7.61719 20.8809 -1.65625c3.11914 3.11914 4.56348 7.58887 3.85449 11.9531zM222.583 100.403c243.988 244.579 231.542 230.219 243.448 245.107c1.05273 16.4736 -3.84375 30.9824 -13.9414 41.0801
s-24.6025 14.9902 -41.0801 13.9375c-14.8535 -11.8789 -0.352539 0.71582 -245.104 -243.448c-10.7441 -10.7393 -22.3252 -26.3369 -34.4229 -46.3525c-16.54 -27.3457 -32.1641 -59.8584 -44.7559 -89.5029c28.8613 12.2588 60.8574 27.5938 87.8945 43.7852
c20.7988 12.458 36.9355 24.3643 47.9609 35.3936zM483.178 371.84c11.0176 21.7256 13.2256 41.291 4.34082 50.1797c-11.252 11.2451 -35.6709 3.00977 -50.1719 -4.34473c11.041 -3.20117 20.8877 -8.8916 28.916 -16.915
c8.02734 -8.02832 13.7139 -17.875 16.915 -28.9199zM483.178 371.84zM298.372 247.037c3.91406 3.91406 10.2539 3.91406 14.168 0s3.91406 -10.2578 0 -14.168l-28.333 -28.3369c-3.91699 -3.91016 -10.2578 -3.91406 -14.1719 0s-3.91406 10.2588 0 14.1719z
M298.372 247.037zM355.053 303.718c3.91406 3.91406 10.2549 3.91406 14.168 0c3.91406 -3.91309 3.91406 -10.2578 0 -14.1719l-28.3438 -28.3447c-3.91406 -3.90918 -10.2549 -3.90918 -14.1729 0c-3.90918 3.91406 -3.90918 10.2588 0 14.1729zM355.053 303.718z" />
  </font>
</defs></svg>
